{
    "project_info": {
        "project_number": "278305344561",
        "firebase_url": "https://andoidconnect.firebaseio.com",
        "project_id": "andoidconnect",
        "storage_bucket": "andoidconnect.appspot.com"
    },
    "client": [{
        "client_info": {
            "mobilesdk_app_id": "1:278305344561:android:68f4449b43479b24901910",
            "android_client_info": {
                "package_name": "com.carex.connect"
            }
        },
        "oauth_client": [{
            "client_id": "278305344561-c29knqp6253ltfebk9l4kirp6qumslo4.apps.googleusercontent.com",
            "client_type": 3
        }],
        "api_key": [{
            "current_key": "AIzaSyDPdufFljtHWUICJ32M6uIE_Bhuc5fiQWU"
        }],
        "services": {
            "appinvite_service": {
                "other_platform_oauth_client": [{
                    "client_id": "278305344561-c29knqp6253ltfebk9l4kirp6qumslo4.apps.googleusercontent.com",
                    "client_type": 3
                }]
            }
        }
    }],
    "configuration_version": "1"
}