{
  "name": "carex",
  "integrations": {
    "cordova": {}
  },
  "type": "ionic-angular",
  "gulpStartupTasks": [
    "sass",
    "watch"
  ],
  "watchPatterns": [
    "www/**/*",
    "!www/lib/**/*",
    "!www/**/*.map"
  ],
  "proxies": [
    {
      "path": "/jsondata",
      "proxyUrl": " http://udv-admin.carex.dk/config/jsondata"
    }
  ]
}
